<!-- Generated by IcoMoon.io -->
<svg version="1.1" xmlns="http://www.w3.org/2000/svg" width="26" height="32" viewBox="0 0 26 32">
<title>account</title>
<path fill="#014269" d="M19.68 7.526h-0.583c0 1.754-0.709 3.343-1.863 4.497-1.154 1.149-2.737 1.863-4.497 1.863s-3.343-0.709-4.497-1.863c-1.149-1.154-1.863-2.737-1.863-4.497s0.709-3.343 1.863-4.497c1.154-1.149 2.737-1.863 4.497-1.863 1.754 0 3.343 0.709 4.497 1.863 1.149 1.154 1.863 2.737 1.863 4.497h1.166c0-4.154-3.366-7.526-7.52-7.526-4.16 0-7.526 3.371-7.526 7.526s3.371 7.526 7.526 7.526c4.154 0 7.526-3.371 7.526-7.526h-0.589z"></path>
<path fill="#014269" d="M25.326 23.629h-0.583v7.663h0.291l-0.286-0.063-0.011 0.063h0.291l-0.286-0.063 0.503 0.114-0.257-0.44c-0.154 0.080-0.24 0.263-0.246 0.326l0.503 0.114-0.257-0.44 0.234 0.4v-0.469c-0.006 0.006-0.086-0.011-0.234 0.069l0.234 0.4v-0.469l-24.423 0.006v0.206l0.034-0.2-0.034-0.006v0.206l0.034-0.2-0.080 0.463 0.343-0.309c-0.109-0.114-0.229-0.143-0.269-0.154l-0.080 0.463 0.343-0.309-0.337 0.303h0.463c0-0.046-0.017-0.189-0.126-0.303l-0.337 0.303h0.463v-7.749l0.006-0.263c0.080-1.686 0.754-3.211 1.811-4.354v0l0.103-0.109-0.429-0.4 0.423 0.406c0.526-0.549 1.137-1 1.811-1.337h-0.006l0.131-0.063-0.257-0.526 0.246 0.531c0.189-0.086 0.377-0.166 0.571-0.234l-0.194-0.549 0.189 0.554 0.143-0.046h-0.006c0.171-0.057 0.349-0.109 0.531-0.149l-0.131-0.571-0.406 0.423c0.257 0.246 0.52 0.474 0.794 0.691 0.703 0.554 1.469 1.011 2.286 1.371 0.154 0.069 0.309 0.131 0.463 0.194 0.6 0.234 1.217 0.406 1.846 0.52 0.617 0.114 1.24 0.171 1.874 0.171 0.737 0 1.451-0.097 2.137-0.246 0.069-0.017 0.366-0.086 0.72-0.177s0.709-0.189 0.937-0.274v0c0.257-0.114 0.383-0.229 0.394-0.217 0.577-0.257 1.251-0.509 1.88-1.149l-0.417-0.411v0.583h0.131l0.297-0.143 0.051-0.023 0.046-0.034c0.36-0.269 0.714-0.543 1.063-0.88l-0.406-0.423-0.131 0.571c2.766 0.64 4.88 3.194 5.023 6.286v0l0.006 0.177v0.171h1.16v-0.171l-0.006-0.234c-0.171-3.589-2.623-6.594-5.926-7.366l-0.309-0.074-0.229 0.217c-0.291 0.28-0.606 0.526-0.949 0.783l0.349 0.469-0.251-0.526-0.177 0.086 0.251 0.526v-0.583h-0.246l-0.171 0.171c-0.44 0.446-0.897 0.623-1.52 0.897-0.126 0.057-0.206 0.114-0.263 0.149l-0.069 0.040-0.017 0.006c-0.086 0.034-0.469 0.143-0.794 0.229-0.331 0.086-0.657 0.166-0.669 0.166-0.629 0.131-1.263 0.217-1.891 0.217-0.566 0-1.12-0.051-1.663-0.149-0.554-0.103-1.103-0.257-1.634-0.463-0.137-0.051-0.274-0.109-0.411-0.171-0.726-0.32-1.411-0.731-2.034-1.223-0.246-0.194-0.48-0.394-0.709-0.611l-0.229-0.217-0.309 0.074c-0.211 0.051-0.423 0.109-0.629 0.177h-0.006l-0.143 0.051h-0.011c-0.229 0.080-0.457 0.177-0.674 0.28v0l-0.137 0.069h-0.006c-0.8 0.394-1.52 0.931-2.131 1.571l-0.109 0.114c-1.234 1.337-2.023 3.126-2.114 5.091v0c-0.006 0.114-0.006 0.223-0.006 0.326v7.737c0 0.086 0.011 0.194 0.069 0.314 0.080 0.183 0.269 0.32 0.4 0.354 0.12 0.046 0.206 0.046 0.263 0.046l0.137-0.006 24.486-0.017c0.143-0.023 0.36-0.189 0.417-0.354 0.069-0.154 0.063-0.251 0.069-0.331v-7.663h-0.583z"></path>
<path fill="#014269" d="M9.309 17.857c-0.726-0.32-1.411-0.731-2.034-1.223l-0.72 0.92c0.703 0.554 1.469 1.011 2.28 1.371 0.154 0.069 0.309 0.131 0.469 0.194 0.6 0.234 1.217 0.406 1.846 0.52l0.211-1.149c-0.554-0.103-1.103-0.257-1.634-0.463-0.143-0.051-0.28-0.109-0.417-0.171-0.726-0.32-1.411-0.731-2.034-1.223l-0.72 0.92c0.703 0.554 1.469 1.011 2.286 1.371l0.469-1.069z"></path>
</svg>
